100	0.014656137	0.119369684	0.325594777	0.685752189	0.131666379	0.116050035	0.073967372
200	0.01500577	0.029620014	0.098332008	0.243183342	0.056085714	0.012357009	0.055978975
300	0.010731721	0.072942737	0.203583663	0.584245142	0.193095466	0.075820395	0.038995689
400	0.068515704	0.071000724	0.339557468	0.712301462	0.22576556	0.125143496	0.085139098
500	0.043002338	0.032687125	0.078497668	0.322880948	0.055732857	0.066730081	0.072114104
600	0.010121855	0.022790719	0.081969296	0.013788179	0.054743224	0.012647819	0.029488481
700	0.079265301	0.112065465	0.097133942	0.250581311	0.084238985	0.032173198	0.099482218
800	0.039426324	0.084839921	0.204370798	0.479087423	0.078179908	0.002068604	0.015823002
900	0.029325527	0.0644837	0.245223576	0.636513468	0.021992469	0.009168304	0.036506948
1000	0.02855066	0.019016211	0.135488339	0.370380468	0.03237195	0.000199381	0.038609056
2000	0.02839566	0.025356297	0.035159929	0.191596792	0.037847799	0.015188845	0.007641941
3000	0.033638777	0.022966817	0.017208217	0.137735553	0.025696339	0.04002659	0.0643609
4000	0.004654655	0.007007371	0.081925083	0.274758995	0.033082161	0.010801639	0.005911586
5000	0.018438322	0.018379768	0.036312371	0.137982655	0.055825642	0.027549873	0.010890413
6000	0.007916231	0.003018009	0.027468455	0.084930591	0.003564501	0.026475575	0.007925603
7000	0.018311948	0.023613526	0.084981483	0.271540677	0.023108554	0.04164251	0.01313907
8000	0.001727255	0.000806781	0.035603987	0.124138563	0.008679915	0.005602769	0.00428649
9000	0.002690856	0.00230277	0.028423445	0.018022424	0.026888244	0.002945079	0.018733109
10000	0.002903595	0.001730574	0.023078078	0.03546906	0.01980094	0.019074851	0.009367666
20000	0.006375823	0.00294413	0.013733947	0.074244979	0.024712235	0.008276976	0.0054687
30000	0.007374848	0.010535715	0.009470809	0.029708851	0.019164976	0.002239432	0.007089948
40000	0.003465511	0.003531291	0.01327345	0.043604879	0.001539219	0.003667034	0.004620565
50000	0.003782326	0.001060382	0.009862024	0.040819433	0.012549517	0.00657404	0.007299708
60000	0.001906191	0.004370191	0.039540719	0.112929556	0.002631288	0.004276931	0.011996832
70000	0.00198864	0.008509429	0.006975959	0.014175341	0.007485885	0.010345546	0.00426465
80000	0.002200462	0.000745461	0.009643871	0.046151649	0.005328029	0.006361167	0.001958266
90000	0.001107357	0.005322073	0.025813012	0.091326817	0.005554043	0.009361957	0.001719635
100000	0.00232813	0.003149725	0.001683578	0.006694526	0.009022111	0.002010638	0.003506773
